nested2.m
PM/0 code:

  0  JMP        25  
  1  JMP        20  
  2  JMP         3  
// procedure B
  3  INC         4  
  4  LOD    2    4  
  5  LOD    1    4  
  6  ADD            
  7  STO    2    4  
  8  LOD    2    4  
  9  OUT      
 10  RET            
 11  JMP        12  
// procedure C
 12  INC         4  
 13  CAL    1    2  
 14  LOD    2    4  
 15  LIT        10  
 16  LSS            
 17  JPC        19  
 18  CAL    1   11  
 19  RET            
 20  INC         5  
 21  LIT         2  
 22  STO    0    4  
 23  CAL    0   11  
 24  RET            
 25  INC         5  
 26  LIT         5  
 27  STO    0    4  
 28  CAL    0    1  
 29  HLT            

Execution:
                      pc   bp   sp   stack
                       0    1    0   
  0  JMP        25    25    1    0   
 25  INC         5    26    1    5   0 0 0 0 0 
 26  LIT         5    27    1    6   0 0 0 0 0 5 
 27  STO    0    4    28    1    5   0 0 0 0 5 
 28  CAL    0    1     1    6    5   0 0 0 0 5 
  1  JMP        20    20    6    5   0 0 0 0 5 
 20  INC         5    21    6   10   0 0 0 0 5 |1/1 0 1 1 29 0 
 21  LIT         2    22    6   11   0 0 0 0 5 |1/1 0 1 1 29 0 2 
 22  STO    0    4    23    6   10   0 0 0 0 5 |1/1 0 1 1 29 2 
 23  CAL    0   11    11   11   10   0 0 0 0 5 |1/2 0 1 1 29 2 
 11  JMP        12    12   11   10   0 0 0 0 5 |1/2 0 1 1 29 2 
 12  INC         4    13   11   14   0 0 0 0 5 |1/2 0 1 1 29 2 |2/2 0 6 6 24 
 13  CAL    1    2     2   15   14   0 0 0 0 5 |1/3 0 1 1 29 2 |2/3 0 6 6 24 
  2  JMP         3     3   15   14   0 0 0 0 5 |1/3 0 1 1 29 2 |2/3 0 6 6 24 
  3  INC         4     4   15   18   0 0 0 0 5 |1/3 0 1 1 29 2 |2/3 0 6 6 24 |3/3 0 6 11 14 
  4  LOD    2    4     5   15   19   0 0 0 0 5 |1/3 0 1 1 29 2 |2/3 0 6 6 24 |3/3 0 6 11 14 5 
  5  LOD    1    4     6   15   20   0 0 0 0 5 |1/3 0 1 1 29 2 |2/3 0 6 6 24 |3/3 0 6 11 14 5 2 
  6  ADD               7   15   19   0 0 0 0 5 |1/3 0 1 1 29 2 |2/3 0 6 6 24 |3/3 0 6 11 14 7 
  7  STO    2    4     8   15   18   0 0 0 0 7 |1/3 0 1 1 29 2 |2/3 0 6 6 24 |3/3 0 6 11 14 
  8  LOD    2    4     9   15   19   0 0 0 0 7 |1/3 0 1 1 29 2 |2/3 0 6 6 24 |3/3 0 6 11 14 7 
  9  OUT      
Output:   7           10   15   18   0 0 0 0 7 |1/3 0 1 1 29 2 |2/3 0 6 6 24 |3/3 0 6 11 14 
 10  RET              14   11   14   0 0 0 0 7 |1/2 0 1 1 29 2 |2/2 0 6 6 24 
 14  LOD    2    4    15   11   15   0 0 0 0 7 |1/2 0 1 1 29 2 |2/2 0 6 6 24 7 
 15  LIT        10    16   11   16   0 0 0 0 7 |1/2 0 1 1 29 2 |2/2 0 6 6 24 7 10 
 16  LSS              17   11   15   0 0 0 0 7 |1/2 0 1 1 29 2 |2/2 0 6 6 24 1 
 17  JPC        19    18   11   14   0 0 0 0 7 |1/2 0 1 1 29 2 |2/2 0 6 6 24 
 18  CAL    1   11    11   15   14   0 0 0 0 7 |1/3 0 1 1 29 2 |2/3 0 6 6 24 
 11  JMP        12    12   15   14   0 0 0 0 7 |1/3 0 1 1 29 2 |2/3 0 6 6 24 
 12  INC         4    13   15   18   0 0 0 0 7 |1/3 0 1 1 29 2 |2/3 0 6 6 24 |3/3 0 6 11 19 
 13  CAL    1    2     2   19   18   0 0 0 0 7 |1/4 0 1 1 29 2 |2/4 0 6 6 24 |3/4 0 6 11 19 
  2  JMP         3     3   19   18   0 0 0 0 7 |1/4 0 1 1 29 2 |2/4 0 6 6 24 |3/4 0 6 11 19 
  3  INC         4     4   19   22   0 0 0 0 7 |1/4 0 1 1 29 2 |2/4 0 6 6 24 |3/4 0 6 11 19 |4/4 0 6 15 14 
  4  LOD    2    4     5   19   23   0 0 0 0 7 |1/4 0 1 1 29 2 |2/4 0 6 6 24 |3/4 0 6 11 19 |4/4 0 6 15 14 7 
  5  LOD    1    4     6   19   24   0 0 0 0 7 |1/4 0 1 1 29 2 |2/4 0 6 6 24 |3/4 0 6 11 19 |4/4 0 6 15 14 7 2 
  6  ADD               7   19   23   0 0 0 0 7 |1/4 0 1 1 29 2 |2/4 0 6 6 24 |3/4 0 6 11 19 |4/4 0 6 15 14 9 
  7  STO    2    4     8   19   22   0 0 0 0 9 |1/4 0 1 1 29 2 |2/4 0 6 6 24 |3/4 0 6 11 19 |4/4 0 6 15 14 
  8  LOD    2    4     9   19   23   0 0 0 0 9 |1/4 0 1 1 29 2 |2/4 0 6 6 24 |3/4 0 6 11 19 |4/4 0 6 15 14 9 
  9  OUT      
Output:   9           10   19   22   0 0 0 0 9 |1/4 0 1 1 29 2 |2/4 0 6 6 24 |3/4 0 6 11 19 |4/4 0 6 15 14 
 10  RET              14   15   18   0 0 0 0 9 |1/3 0 1 1 29 2 |2/3 0 6 6 24 |3/3 0 6 11 19 
 14  LOD    2    4    15   15   19   0 0 0 0 9 |1/3 0 1 1 29 2 |2/3 0 6 6 24 |3/3 0 6 11 19 9 
 15  LIT        10    16   15   20   0 0 0 0 9 |1/3 0 1 1 29 2 |2/3 0 6 6 24 |3/3 0 6 11 19 9 10 
 16  LSS              17   15   19   0 0 0 0 9 |1/3 0 1 1 29 2 |2/3 0 6 6 24 |3/3 0 6 11 19 1 
 17  JPC        19    18   15   18   0 0 0 0 9 |1/3 0 1 1 29 2 |2/3 0 6 6 24 |3/3 0 6 11 19 
 18  CAL    1   11    11   19   18   0 0 0 0 9 |1/4 0 1 1 29 2 |2/4 0 6 6 24 |3/4 0 6 11 19 
 11  JMP        12    12   19   18   0 0 0 0 9 |1/4 0 1 1 29 2 |2/4 0 6 6 24 |3/4 0 6 11 19 
 12  INC         4    13   19   22   0 0 0 0 9 |1/4 0 1 1 29 2 |2/4 0 6 6 24 |3/4 0 6 11 19 |4/4 0 6 15 19 
 13  CAL    1    2     2   23   22   0 0 0 0 9 |1/5 0 1 1 29 2 |2/5 0 6 6 24 |3/5 0 6 11 19 |4/5 0 6 15 19 
  2  JMP         3     3   23   22   0 0 0 0 9 |1/5 0 1 1 29 2 |2/5 0 6 6 24 |3/5 0 6 11 19 |4/5 0 6 15 19 
  3  INC         4     4   23   26   0 0 0 0 9 |1/5 0 1 1 29 2 |2/5 0 6 6 24 |3/5 0 6 11 19 |4/5 0 6 15 19 |5/5 0 6 19 14 
  4  LOD    2    4     5   23   27   0 0 0 0 9 |1/5 0 1 1 29 2 |2/5 0 6 6 24 |3/5 0 6 11 19 |4/5 0 6 15 19 |5/5 0 6 19 14 9 
  5  LOD    1    4     6   23   28   0 0 0 0 9 |1/5 0 1 1 29 2 |2/5 0 6 6 24 |3/5 0 6 11 19 |4/5 0 6 15 19 |5/5 0 6 19 14 9 2 
  6  ADD               7   23   27   0 0 0 0 9 |1/5 0 1 1 29 2 |2/5 0 6 6 24 |3/5 0 6 11 19 |4/5 0 6 15 19 |5/5 0 6 19 14 11 
  7  STO    2    4     8   23   26   0 0 0 0 11 |1/5 0 1 1 29 2 |2/5 0 6 6 24 |3/5 0 6 11 19 |4/5 0 6 15 19 |5/5 0 6 19 14 
  8  LOD    2    4     9   23   27   0 0 0 0 11 |1/5 0 1 1 29 2 |2/5 0 6 6 24 |3/5 0 6 11 19 |4/5 0 6 15 19 |5/5 0 6 19 14 11 
  9  OUT      
Output:  11           10   23   26   0 0 0 0 11 |1/5 0 1 1 29 2 |2/5 0 6 6 24 |3/5 0 6 11 19 |4/5 0 6 15 19 |5/5 0 6 19 14 
 10  RET              14   19   22   0 0 0 0 11 |1/4 0 1 1 29 2 |2/4 0 6 6 24 |3/4 0 6 11 19 |4/4 0 6 15 19 
 14  LOD    2    4    15   19   23   0 0 0 0 11 |1/4 0 1 1 29 2 |2/4 0 6 6 24 |3/4 0 6 11 19 |4/4 0 6 15 19 11 
 15  LIT        10    16   19   24   0 0 0 0 11 |1/4 0 1 1 29 2 |2/4 0 6 6 24 |3/4 0 6 11 19 |4/4 0 6 15 19 11 10 
 16  LSS              17   19   23   0 0 0 0 11 |1/4 0 1 1 29 2 |2/4 0 6 6 24 |3/4 0 6 11 19 |4/4 0 6 15 19 0 
 17  JPC        19    19   19   22   0 0 0 0 11 |1/4 0 1 1 29 2 |2/4 0 6 6 24 |3/4 0 6 11 19 |4/4 0 6 15 19 
 19  RET              19   15   18   0 0 0 0 11 |1/3 0 1 1 29 2 |2/3 0 6 6 24 |3/3 0 6 11 19 
 19  RET              19   11   14   0 0 0 0 11 |1/2 0 1 1 29 2 |2/2 0 6 6 24 
 19  RET              24    6   10   0 0 0 0 11 |1/1 0 1 1 29 2 
 24  RET              29    1    5   0 0 0 0 11 
 29  HLT              30    1    5   0 0 0 0 11 
