nested.m
PM/0 code:

  0  JMP        21  
  1  JMP        16  
  2  JMP         3  
// procedure B
  3  INC         4  
  4  LOD    2    4   // x   
  5  LOD    1    4   // y 
  6  ADD             // +  
  7  STO    2    4   // store the sum in x
  8  LOD    2    4  
  9  OUT      
 10  LOD    2    4  
 11  LIT        10  
 12  LSS            
 13  JPC        15  
 14  CAL    1    2   // call B (I)  
 15  RET            
// procedure A
 16  INC         5  
 17  LIT         2  
 18  STO    0    4  
 19  CAL    0    2  // call B (II)
 20  RET            
// main
 21  INC         5  
 22  LIT         5  
 23  STO    0    4  
 24  CAL    0    1  
 25  HLT            

Execution:
                      pc   bp   sp   stack
                       0    1    0   
  0  JMP        21    21    1    0   
 21  INC         5    22    1    5   0 0 0 0 0 
 22  LIT         5    23    1    6   0 0 0 0 0 5 
 23  STO    0    4    24    1    5   0 0 0 0 5 
 24  CAL    0    1     1    6    5   0 0 0 0 5 
  1  JMP        16    16    6    5   0 0 0 0 5 
 16  INC         5    17    6   10   0 0 0 0 5 |1/1 0 1 1 25 0 
 17  LIT         2    18    6   11   0 0 0 0 5 |1/1 0 1 1 25 0 2 
 18  STO    0    4    19    6   10   0 0 0 0 5 |1/1 0 1 1 25 2 
 19  CAL    0    2     2   11   10   0 0 0 0 5 |1/2 0 1 1 25 2 
  2  JMP         3     3   11   10   0 0 0 0 5 |1/2 0 1 1 25 2 
  3  INC         4     4   11   14   0 0 0 0 5 |1/2 0 1 1 25 2 |2/2 0 6 6 20 
  4  LOD    2    4     5   11   15   0 0 0 0 5 |1/2 0 1 1 25 2 |2/2 0 6 6 20 5 
  5  LOD    1    4     6   11   16   0 0 0 0 5 |1/2 0 1 1 25 2 |2/2 0 6 6 20 5 2 
  6  ADD               7   11   15   0 0 0 0 5 |1/2 0 1 1 25 2 |2/2 0 6 6 20 7 
  7  STO    2    4     8   11   14   0 0 0 0 7 |1/2 0 1 1 25 2 |2/2 0 6 6 20 
  8  LOD    2    4     9   11   15   0 0 0 0 7 |1/2 0 1 1 25 2 |2/2 0 6 6 20 7 
  9  OUT      
Output:   7           10   11   14   0 0 0 0 7 |1/2 0 1 1 25 2 |2/2 0 6 6 20 
 10  LOD    2    4    11   11   15   0 0 0 0 7 |1/2 0 1 1 25 2 |2/2 0 6 6 20 7 
 11  LIT        10    12   11   16   0 0 0 0 7 |1/2 0 1 1 25 2 |2/2 0 6 6 20 7 10 
 12  LSS              13   11   15   0 0 0 0 7 |1/2 0 1 1 25 2 |2/2 0 6 6 20 1 
 13  JPC        15    14   11   14   0 0 0 0 7 |1/2 0 1 1 25 2 |2/2 0 6 6 20 
 14  CAL    1    2     2   15   14   0 0 0 0 7 |1/3 0 1 1 25 2 |2/3 0 6 6 20 
  2  JMP         3     3   15   14   0 0 0 0 7 |1/3 0 1 1 25 2 |2/3 0 6 6 20 
  3  INC         4     4   15   18   0 0 0 0 7 |1/3 0 1 1 25 2 |2/3 0 6 6 20 |3/3 0 6 11 15 
  4  LOD    2    4     5   15   19   0 0 0 0 7 |1/3 0 1 1 25 2 |2/3 0 6 6 20 |3/3 0 6 11 15 7 
  5  LOD    1    4     6   15   20   0 0 0 0 7 |1/3 0 1 1 25 2 |2/3 0 6 6 20 |3/3 0 6 11 15 7 2 
  6  ADD               7   15   19   0 0 0 0 7 |1/3 0 1 1 25 2 |2/3 0 6 6 20 |3/3 0 6 11 15 9 
  7  STO    2    4     8   15   18   0 0 0 0 9 |1/3 0 1 1 25 2 |2/3 0 6 6 20 |3/3 0 6 11 15 
  8  LOD    2    4     9   15   19   0 0 0 0 9 |1/3 0 1 1 25 2 |2/3 0 6 6 20 |3/3 0 6 11 15 9 
  9  OUT      
Output:   9           10   15   18   0 0 0 0 9 |1/3 0 1 1 25 2 |2/3 0 6 6 20 |3/3 0 6 11 15 
 10  LOD    2    4    11   15   19   0 0 0 0 9 |1/3 0 1 1 25 2 |2/3 0 6 6 20 |3/3 0 6 11 15 9 
 11  LIT        10    12   15   20   0 0 0 0 9 |1/3 0 1 1 25 2 |2/3 0 6 6 20 |3/3 0 6 11 15 9 10 
 12  LSS              13   15   19   0 0 0 0 9 |1/3 0 1 1 25 2 |2/3 0 6 6 20 |3/3 0 6 11 15 1 
 13  JPC        15    14   15   18   0 0 0 0 9 |1/3 0 1 1 25 2 |2/3 0 6 6 20 |3/3 0 6 11 15 
 14  CAL    1    2     2   19   18   0 0 0 0 9 |1/4 0 1 1 25 2 |2/4 0 6 6 20 |3/4 0 6 11 15 
  2  JMP         3     3   19   18   0 0 0 0 9 |1/4 0 1 1 25 2 |2/4 0 6 6 20 |3/4 0 6 11 15 
  3  INC         4     4   19   22   0 0 0 0 9 |1/4 0 1 1 25 2 |2/4 0 6 6 20 |3/4 0 6 11 15 |4/4 0 6 15 15 
  4  LOD    2    4     5   19   23   0 0 0 0 9 |1/4 0 1 1 25 2 |2/4 0 6 6 20 |3/4 0 6 11 15 |4/4 0 6 15 15 9 
  5  LOD    1    4     6   19   24   0 0 0 0 9 |1/4 0 1 1 25 2 |2/4 0 6 6 20 |3/4 0 6 11 15 |4/4 0 6 15 15 9 2 
  6  ADD               7   19   23   0 0 0 0 9 |1/4 0 1 1 25 2 |2/4 0 6 6 20 |3/4 0 6 11 15 |4/4 0 6 15 15 11 
  7  STO    2    4     8   19   22   0 0 0 0 11 |1/4 0 1 1 25 2 |2/4 0 6 6 20 |3/4 0 6 11 15 |4/4 0 6 15 15 
  8  LOD    2    4     9   19   23   0 0 0 0 11 |1/4 0 1 1 25 2 |2/4 0 6 6 20 |3/4 0 6 11 15 |4/4 0 6 15 15 11 
  9  OUT      
Output:  11           10   19   22   0 0 0 0 11 |1/4 0 1 1 25 2 |2/4 0 6 6 20 |3/4 0 6 11 15 |4/4 0 6 15 15 
 10  LOD    2    4    11   19   23   0 0 0 0 11 |1/4 0 1 1 25 2 |2/4 0 6 6 20 |3/4 0 6 11 15 |4/4 0 6 15 15 11 
 11  LIT        10    12   19   24   0 0 0 0 11 |1/4 0 1 1 25 2 |2/4 0 6 6 20 |3/4 0 6 11 15 |4/4 0 6 15 15 11 10 
 12  LSS              13   19   23   0 0 0 0 11 |1/4 0 1 1 25 2 |2/4 0 6 6 20 |3/4 0 6 11 15 |4/4 0 6 15 15 0 
 13  JPC        15    15   19   22   0 0 0 0 11 |1/4 0 1 1 25 2 |2/4 0 6 6 20 |3/4 0 6 11 15 |4/4 0 6 15 15 
 15  RET              15   15   18   0 0 0 0 11 |1/3 0 1 1 25 2 |2/3 0 6 6 20 |3/3 0 6 11 15 
 15  RET              15   11   14   0 0 0 0 11 |1/2 0 1 1 25 2 |2/2 0 6 6 20 
 15  RET              20    6   10   0 0 0 0 11 |1/1 0 1 1 25 2 
 20  RET              25    1    5   0 0 0 0 11 
 25  HLT              26    1    5   0 0 0 0 11 
